…
    ##  Factor w/ 5 levels "Poor","Fair",..: 5 4 3 2 1 5 4 3 2 1 ...

``` r
#In 2002, which states were observed at 7 or more locations? What about in 2010? Construct a dataset that is limited to Excellent responses, and contains, year, state, and a variable that averages the data_value across locations within a state. Make a “spaghetti” plot of this average value over time within a state (that is, make a plot showing a line for each state across years – the geom_line geometry and group aesthetic will help).

 brfss_smart2010.x %>% 
  filter(Year == 2002) %>%
  group_by(Locationabbr) %>%
  summarise(x = n()) %>%
  filter(x >= 7)
```

    ## # A tibble: 36 × 2
    ##    Locationabbr     x
    ##    <chr>        <int>
    ##  1 AZ              10
    ##  2 CO              20
    ##  3 CT              35
    ##  4 DE              15
    ##  5 FL              35
    ##  6 GA              15
    ##  7 HI              20
    ##  8 ID              10
    ##  9 IL              15
    ## 10 IN              10
    ## # ℹ 26 more rows

``` r
# object
# function

 brfss_smart2010.x %>% 
  filter(Year == 2010) %>%
  group_by(Locationabbr) %>%
  summarise(x = n()) %>%
  filter(x >= 7)
```

    ## # A tibble: 45 × 2
    ##    Locationabbr     x
    ##    <chr>        <int>
    ##  1 AL              15
    ##  2 AR              15
    ##  3 AZ              15
    ##  4 CA              60
    ##  5 CO              35
    ##  6 CT              25
    ##  7 DE              15
    ##  8 FL             205
    ##  9 GA              20
    ## 10 HI              20
    ## # ℹ 35 more rows
…
